…
#### 2. บริษัทใดมียอดขายรวมกันเยอะที่สุด

คำสั่ง

```R
games %>%
group_by(Publisher) %>%
summarize(max_globalsales = max(Global_Sales)) %>% 
arrange(desc(max_globalsales))
```

ผลลัพธ์

```R
# A tibble: 579 x 2
   Publisher                   max_globalsales
   <chr>                                 <dbl>
 1 Nintendo                              82.7 
 2 Microsoft Game Studios                21.8 
 3 Take-Two Interactive                  21.4 
 4 Sony Computer Entertainment           15.0 
 5 Activision                            14.8 
 6 Ubisoft                               10.3 
 7 Bethesda Softworks                     8.84
 8 Electronic Arts                        8.49
 9 Sega                                   8.06
10 SquareSoft                             7.86
# ... with 569 more rows
```
…
#### 3. บริษัทที่มียอดขายมากที่สุดในแต่ละทวีป

คำสั่ง(NA_Sales)

```R
games %>%
group_by(Publisher) %>%
summarize(max_NAsales = max(NA_Sales)) %>% 
arrange(desc(max_NAsales))
```

ผลลัพธ์

```R
# A tibble: 579 x 2
   Publisher                   max_NAsales
   <chr>                             <dbl>
 1 Nintendo                          41.5 
 2 Microsoft Game Studios            15.0 
 3 Activision                         9.67
 4 Take-Two Interactive               9.63
 5 Atari                              7.28
 6 Sony Computer Entertainment        6.85
 7 Ubisoft                            6.05
 8 Bethesda Softworks                 5.03
 9 Sega                               4.47
10 Electronic Arts                    4.46
# ... with 569 more rows
```
> จากกลุ่มตัวอย่างพบว่า บริษัท Nintendo มียอดขายภายในทวีปอเมริกาเหนือมากที่สุดคือ 41.5 ล้านดอลลาร์ และบริษัทอื่น ๆ ไล่ลำดับลงไปตามผลลัพธ์

คำสั่ง(EU_Sales)

```R
games %>%
group_by(Publisher) %>%
summarize(max_EUsales = max(EU_Sales)) %>% 
arrange(desc(max_EUsales))
```

ผลลัพธ์

```R
# A tibble: 579 x 2
   Publisher                   max_EUsales
   <chr>                             <dbl>
 1 Nintendo                          29.0 
 2 Take-Two Interactive               9.27
 3 Electronic Arts                    6.42
 4 Activision                         6.21
 5 Sony Computer Entertainment        5.09
 6 Microsoft Game Studios             4.94
 7 Sega                               3.9 
 8 Bethesda Softworks                 3.15
 9 Ubisoft                            3.15
10 GT Interactive                     2.8 
# ... with 569 more rows
```
…
> จากกลุ่มตัวอย่างพบว่า ชื่อเกมที่มียอดขายรวมกันสูงที่สุด คือ Wii Sports

#### 6. ในทุก ๆ ปี มียอดขายรวมกันมากที่สุดเท่าไร

คำสั่ง

```R
games %>% group_by(Year) %>% summarize(max_globalsales = max(Global_Sales))
```

ผลลัพธ์

```R
# A tibble: 40 x 2
   Year  max_globalsales
   <fct>           <dbl>
 1 1980             4.31
 2 1981             4.5 
 3 1982             7.81
 4 1983             3.2 
 5 1984            28.3 
 6 1985            40.2 
 7 1986             6.51
 8 1987             4.38
 9 1988            17.3 
10 1989            30.3 
# ... with 30 more rows
```
…
> จากกลุ่มตัวอย่างพบว่า เกมส่วนใหญ่นั้นเล่นบนแพลตฟอร์ม DS โดยมีจำนวน 2163 เกมจากกลุ่มตัวอย่างทั้งหมด

#### 11. แต่ละปีไหนมีจำนวนเกมที่ขายเท่าใด

คำสั่ง

```R
games %>% count(games$Year)
```

ผลลัพธ์

```R
# A tibble: 40 x 2
   `games$Year`     n
   <fct>        <int>
 1 1980             9
 2 1981            46
 3 1982            36
 4 1983            17
 5 1984            14
 6 1985            14
 7 1986            21
 8 1987            16
 9 1988            15
10 1989            17
# ... with 30 more rows
…
> จากกลุ่มตัวอย่างพบว่า แต่ละทวีปมีเกมที่มียอดขายมากที่สุดต่างกันออกไป ซึ่งทำให้สามารถคาดเดาเกมที่แต่ละทวีปสนใจได้

#### 13. แต่ละแพลตฟอร์มมีเกมที่ขายจำนวนเท่าใด

คำสั่ง

```R
games %>% count(Platform)
```

ผลลัพธ์

```R
# A tibble: 31 x 2
Platform     n
<chr>    <int>
 1 2600       133
 2 3DO          3
 3 3DS        509
 4 DC          52
 5 DS        2163
 6 GB          98
 7 GBA        822
 8 GC         556
 9 GEN         27
10 GG           1
# ... with 21 more rows
```
…
