…
#### 3.เพิ่ม column ข้อมูล Rating/Review

##### Code

```R
top_cs %>%
  mutate(Rating/Reviews)
```

##### Result

```
# A tibble: 271 × 8
   Rating Reviews Book_title        Description         Number_Of_Pages Type  Price `Rating/Reviews`
    <dbl>   <dbl> <chr>             <chr>                         <dbl> <chr> <dbl>            <dbl>
 1   4.17    3829 The Elements of … "This style manual…             105 Hard…  9.32         0.00109 
 2   4.01    1406 The Information:… "James Gleick, the…             527 Hard… 11            0.00285 
 3   3.33       0 Responsive Web D… "In Responsive Web…              50 Kind… 11.3        Inf       
 4   3.97    1658 Ghost in the Wir… "If they were a ha…             393 Hard… 12.9          0.00239 
 5   4.06    1325 How Google Works  "Both Eric Schmidt…             305 Kind… 13.2          0.00306 
 6   3.84     117 The Meme Machine  "What is a meme? F…             288 Pape… 14.2          0.0328  
 7   4.09    5938 Start with Why: … "Why do you do wha…             256 Hard… 14.2          0.000689
 8   4.15    1817 Algorithms to Li… "A fascinating exp…             368 Hard… 14.4          0.00228 
 9   3.87    2093 Weapons of Math … "A former Wall Str…             259 Hard… 14.5          0.00185 
10   4.62       0 ZX Spectrum Game… "This book is idea…             128 Pape… 14.6        Inf       
# … with 261 more rows
```
…
#### 5.แสดง column Book_Title เป็น column แรก

##### Code

```R
top_cs %>% relocate(Book_title)
```

##### Result

```
# A tibble: 271 × 7
   Book_title                Rating Reviews Description                 Number_Of_Pages Type   Price
   <chr>                      <dbl>   <dbl> <chr>                                 <dbl> <chr>  <dbl>
 1 The Elements of Style       4.17    3829 "This style manual offers …             105 Hardc…  9.32
 2 The Information: A Histo…   4.01    1406 "James Gleick, the author …             527 Hardc… 11   
 3 Responsive Web Design Ov…   3.33       0 "In Responsive Web Design …              50 Kindl… 11.3 
 4 Ghost in the Wires: My A…   3.97    1658 "If they were a hall of fa…             393 Hardc… 12.9 
 5 How Google Works            4.06    1325 "Both Eric Schmidt and Jon…             305 Kindl… 13.2 
 6 The Meme Machine            3.84     117 "What is a meme? First coi…             288 Paper… 14.2 
 7 Start with Why: How Grea…   4.09    5938 "Why do you do what you do…             256 Hardc… 14.2 
 8 Algorithms to Live By: T…   4.15    1817 "A fascinating exploration…             368 Hardc… 14.4 
 9 Weapons of Math Destruct…   3.87    2093 "A former Wall Street quan…             259 Hardc… 14.5 
10 ZX Spectrum Games Code C…   4.62       0 "This book is ideal for ZX…             128 Paper… 14.6 
# … with 261 more rows
```
…
