…
```
as_tibble(Prog_Books)
```
Result

```
# A tibble: 271 x 7
   Rating Reviews Book_title                                                                             Description                                                  Number_Of_Pages Type    Price
    <dbl> <chr>   <chr>                                                                                  <chr>                                                                  <int> <chr>   <dbl>
 1   4.17 3,829   The Elements of Style                                                                  "This style manual offers practical advice on improving wri~             105 Hardco~  9.32
 2   4.01 1,406   The Information: A History, a Theory, a Flood                                          "James Gleick, the author of the best sellers Chaos and Gen~             527 Hardco~ 11   
 3   3.33 0       Responsive Web Design Overview For Beginners                                           "In Responsive Web Design Overview For Beginners, you'll ge~              50 Kindle~ 11.3 
 4   3.97 1,658   Ghost in the Wires: My Adventures as the World's Most Wanted Hacker                    "If they were a hall of fame or shame for computer hackers,~             393 Hardco~ 12.9 
 5   4.06 1,325   How Google Works                                                                       "Both Eric Schmidt and Jonathan Rosenberg came to Google as~             305 Kindle~ 13.2 
 6   3.84 117     The Meme Machine                                                                       "What is a meme? First coined by Richard Dawkins in 'The Se~             288 Paperb~ 14.2 
 7   4.09 5,938   Start with Why: How Great Leaders Inspire Everyone to Take Action                      "Why do you do what you do?\n\nWhy are some people and orga~             256 Hardco~ 14.2 
 8   4.15 1,817   Algorithms to Live By: The Computer Science of Human Decisions                         "A fascinating exploration of how insights from computer al~             368 Hardco~ 14.4 
 9   3.87 2,093   Weapons of Math Destruction: How Big Data Increases Inequality and Threatens Democracy "A former Wall Street quant sounds an alarm on mathematical~             259 Hardco~ 14.5 
10   4.62 0       ZX Spectrum Games Code Club: Twenty fun games to code and learn                        "This book is ideal for ZX Spectrum fans and beginner coder~             128 Paperb~ 14.6 
# ... with 261 more rows
```
…
