…
> sales %>% summarize_if(is.numeric,min)
  Sales
1 0.444
```

- Function `as_tibble()` from package [tidyr](https://tibble.tidyverse.org/reference/as_tibble.html). It using for the data frame that is designed for presentation.

```R
as_tibble(sales)
```

Result

```
# A tibble: 9,800 x 18
   Row   Order.ID       Order.Date Ship.Date  Ship.Mode  
   <chr> <chr>          <chr>      <chr>      <chr>      
 1 1     CA-2017-152156 08/11/2017 11/11/2017 Second Cla~
 2 2     CA-2017-152156 08/11/2017 11/11/2017 Second Cla~
 3 3     CA-2017-138688 12/06/2017 16/06/2017 Second Cla~
 4 4     US-2016-108966 11/10/2016 18/10/2016 Standard C~
 5 5     US-2016-108966 11/10/2016 18/10/2016 Standard C~
 6 6     CA-2015-115812 09/06/2015 14/06/2015 Standard C~
 7 7     CA-2015-115812 09/06/2015 14/06/2015 Standard C~
 8 8     CA-2015-115812 09/06/2015 14/06/2015 Standard C~
 9 9     CA-2015-115812 09/06/2015 14/06/2015 Standard C~
10 10    CA-2015-115812 09/06/2015 14/06/2015 Standard C~
# ... with 9,790 more rows, and 13 more variables:
#   Customer.ID <chr>, Customer.Name <chr>,
#   Segment <chr>, Country <chr>, City <chr>,
#   State <chr>, Postal.Code <chr>, Region <chr>,
#   Product.ID <chr>, Category <chr>,
#   Sub.Category <chr>, ProductName <chr>, Sales <dbl>
```
…
